…
#>         }
#>     }
#>     result
#> }
#> <bytecode: 0x55b9ff02fac0>
#> <environment: 0x55b9fe1ae7c0>
#> 
#> attr(,"class")
#> [1] "trending_model_fit" "list"              
#> 
#> $alpha
#> [1] 0.05
#> 
#> $results
#> # A tibble: 43 x 12
#>    date         day weekday  count .training estimate lower_ci upper_ci lower_pi
#>    <date>     <int> <fct>    <int> <lgl>        <dbl>    <dbl>    <dbl>    <dbl>
#>  1 2020-04-16    29 rest_of… 29497 TRUE        27288.   25091.   29678.    21369
#>  2 2020-04-17    30 rest_of… 27007 TRUE        26733.   24653.   28988.    20738
#>  3 2020-04-18    31 weekend  25453 TRUE        23323.   21284.   25557.    17952
#>  4 2020-04-19    32 weekend  23387 TRUE        22848.   20896.   24983.    17627
#>  5 2020-04-20    33 monday   29287 TRUE        32078.   28549.   36043.    24920
#>  6 2020-04-21    34 rest_of… 23134 TRUE        24621.   22957.   26406.    19268
#>  7 2020-04-22    35 rest_of… 21803 TRUE        24120.   22547.   25803.    18934
#>  8 2020-04-23    36 rest_of… 22298 TRUE        23629.   22141.   25218.    18527
#>  9 2020-04-24    37 rest_of… 22027 TRUE        23148.   21740.   24648.    17732
#> 10 2020-04-25    38 weekend  18861 TRUE        20196.   18665.   21852.    15443
#> # … with 33 more rows, and 3 more variables: upper_pi <dbl>, outlier <lgl>,
#> #   classification <fct>
…
